﻿{
  "media": [
    {
      "file_name": "P01_SE_01_1.mp4",
      "display_name": "Trash_001",
      "tags": "Jessika Intro Trash Snippet Outtake Youtube Fail Jessika Einleitung Müll Schnipsel Fehler Extra",
      "DE": "Hi ich bin die Jessika und jetzt erzähle ich euch mal was über meine Kindheit.",
      "EN": "Hi I am Jessika and now I am going to tell you something about my childhood.",
      "phase": 0
    },
    {
      "file_name": "P01_SE_02_1.mp4",
      "display_name": "Trash_002",
      "tags": "Jessika Intro Trash Snippet Outtake Youtube Fail Jessika Einleitung Müll Schnipsel Fehler Extra",
      "DE": "Hallo. Ich bin die Jessika. Schön das ihr alle da seit. Dann erzähle ich euch mal was über mich.",
      "EN": "Hello. I'm Jessika. Glad you're all here. Then I'll tell you something about me.",
      "phase": 0
    },
    {
      "file_name": "P01_SE_03_1.mp4",
      "display_name": "Trash_003",
      "tags": "Jessika Intro Trash Snippet Outtake Youtube Fail Jessika Einleitung Müll Schnipsel Fehler Extra",
      "DE": "Hi. Ich bin die Jessika und ähm dann sag ich halt mal was über mich. So. Aber nicht wie man sich schminkt oder sich anzieht ist mir scheiß egal. Wenn dann was richtig geiles. ",
      "EN": "Hi. I'm Jessika and um then I'll say something about myself. So. But I don't give a damn how you put make-up on or how you dress. If then something really cool. ",
      "phase": 0
    },
    {
      "file_name": "P01_SE_04_1.mp4",
      "display_name": "Trash_004",
      "tags": "Jessika Intro Trash Snippet Outtake Youtube Fail Jessika Einleitung Müll Schnipsel Fehler Extra",
      "DE": "Hi ich bin die Jessika und joa ich hatte eigentlich eine ganz schöne Kindheit. Wollt ihr auch wissen warum? Das erzähle ich euch jetzt. ",
      "EN": "Hi I'm Jessika and uhm I actually had  a quite nice childhood. You want to know why? That's what I'm telling you now. ",
      "phase": 0
    },
    {
      "file_name": "P01_Ch_G_02_1.mp4",
      "display_name": "Log_002",
      "tags": "Jessika School Class Childhood German Child Schule Klasse Kindheit Deutsch Kind",
      "DE": "Ich bin auch total gerne zur Schule gegangen. Also das hat mir echt Spaß gemacht und ich war echt gut in Geschichten schreiben. Also Deutsch war mein Lieblingsfach.",
      "EN": "I really enjoyed school too. Well I really enjoyed it and I was really good at writing stories. So German was my favorite subject.",
      "phase": 0
    },
    {
      "file_name": "P01_Ch_G_03_1.mp4",
      "display_name": "Log_003_01",
      "tags": "School Class German Holiday Report Classmate Story Lie Fantasy Schule Klasse Deutsch Urlaub Bericht Schulkameraden Mitschüler Geschichte Lüge Fantasie",
      "DE": "Ja und das war auch immer irgendwie schön wenn das dann vorgelesen wurde meine Geschichte. Also gerade auch immer diese Berichte nach den Ferien. Musste man immer so einen Ferienbericht schreiben. Ja und ich hab halt immer am meisten erlebt oder hatte vielleicht auch am meisten Fantasie für die beste Geschichte. Auf jeden Fall fand ich es echt cool wenn alle gelacht haben wenn alle mich bewundert haben.",
      "EN": "Yeah and that was always kind of nice when they read my story. Especially these reports after the holidays. You always had to write a holiday report. Yes and I have always experienced the most or perhaps had the most fantasy for the best story. Anyway I thought it was really cool when everyone was laughing when everyone was admiring me.",
      "phase": 0
    },
    {
      "file_name": "P01_Ch_G_05_1.mp4",
      "display_name": "Log_003_03",
      "tags": "Kindergarden Lie Lying Story Children Kindergarten Lüge Lügen Geschichte Kinder",
      "DE": "Zum Beispiel im Kindergarten habe ich den ganzen Kinder erzählt das ich auf einem Schloss wohne in den Wolken. Das haben die alle geglaubt.",
      "EN": "For example in kindergarten I told all the children that I live in a castle in the clouds. They all believed that.",
      "phase": 0
    },
    {
      "file_name": "P01_Ch_G_07_1.mp4",
      "display_name": "Log_005",
      "tags": "FriendsHobbies House Hobby Sports Freunde Haus Sport Freizeit",
      "DE": "Hinter unserem Haus da war so ein Sportplatz ja und ich weiß noch ich bin einfach allen immer weggerannt. Ja das hat mir total Spaß gemacht und ich war auch die Schnellste.",
      "EN": "Behind our house there was a sports field and I remember running away from everyone. Yes I really enjoyed that and I was also the fastest.",
      "phase": 0
    },
    {
      "file_name": "P01_Ch_G_09_1.mp4",
      "display_name": "Log_004_03",
      "tags": "Friends Bullying House Creek Prank Water Bully Freunde Ärgern Haus Bach Wasser Streich Scherz",
      "DE": "Hinter unserem Haus da war so ein kleiner Bach. Da haben wir auch immer gespielt und dann haben wir immer so Fallen gebaut damit einer den unsere Klique nicht leiden konnte immer reingefallen ist. Fanden wir total witzig.",
      "EN": "Behind our house there was this little creek. There we always played and then we built traps so that someone our clique did not like fell in. We thought it was really funny.",
      "phase": 0
    },
    {
      "file_name": "P01_F_W_01_1.mp4",
      "display_name": "Log_004_04",
      "tags": "Friends Waldi Dog Freunde Hund",
      "DE": "Mein bester Freund war aber Waldi das war ein Labrador und das war mein Hund. Nicht so ein Mischling ein richtiger Labrador und der hat auch nur auf mich gehört. Der war immer dabei egal was wir gemacht haben. Schon ziemlich cool so ein kleines Mädchen und so ein großer Hund. ",
      "EN": "My best friend was Waldi that was a Labrador and that was my dog. Not some half-breed a real Labrador and he listened to me. He was always with us no matter what we did. It's pretty cool such a little girl and such a big dog. ",
      "phase": 0
    },
    {
      "file_name": "P01_F_M_01_1.mp4",
      "display_name": "Log_006",
      "tags": "Mother Childhood Child Parent Parents Mutter Kindheit Kind Eltern",
      "DE": "Meine Mutter die ist vielleicht nicht verkehrt gewesen weiß ich nicht. Also sie hatte auch ihre Momente ihre liebevollen Momente.",
      "EN": "My mother may not have been bad I don't know. She also had her moments her loving moments.",
      "phase": 0
    },
    {
      "file_name": "P01_F_F_01_1.mp4",
      "display_name": "Log_008",
      "tags": "Father Dad Daddy Papy Parent Parents Vater Papi Vati Papa Eltern",
      "DE": "Okay also mein Vater tja mein Vater. Also als ich noch alleine war da ich schon so ein bisschen seine Prinzessin. Also wenn er dann mal da war. Mein Vater der ist Diplomat und war auch immer viel unterwegs aber wenn er dann da war ja dann hat er mit mir auch ganz viel unternommen.",
      "EN": "Okay so my dad well my dad. So when I was alone. Well if he's been there. My father who is a diplomat and was always on the road a lot but when he was there yes then he did a lot with me.",
      "phase": 0
    },
    {
      "file_name": "P01_F_F_03_1.mp4",
      "display_name": "Log_010",
      "tags": "Sports Father Activities Waldi Sportfield Sports Sport Vater Unternehmung Waldi Sportplatz Sport",
      "DE": "Und er hat mich immer motiviert und wollte auch schon immer das ich da ganz gut drin bin. Das war ich auch ich bin da mit Waldi um die Wette gerannt. Also das war echt ein Highlight besonders wenn er mir danach am Kiosk eine Limo gekauft hat",
      "EN": "And he's always motivated me and always wanted me to be good at it. I was too. I was competing with Waldi. So that was really a highlight especially if he bought me a soda afterwards at the kiosk",
      "phase": 0
    },
    {
      "file_name": "P01_F_FW_03_1.mp4",
      "display_name": "Log_11_03",
      "tags": "Trip Dog Waldi Farm Ausflug Hund Bauernhof Hof",
      "DE": "Und dann lag da ein Hund mit lauter Babies also lauter Welpen und ich durfte mir dann einen aussuchen. Ich durfte mir echt einen aussuchen. Ich hab mir immer einen Hund gewünscht. Dann liegen da diese Welpen und ich hab mich sofort in einen verliebt so einen kleinen Frechdachs dann habe ich ihn Waldi genannt und gleich auf meinen Arm genommen. Dann hatte ich diesen Hund und wir sind noch zusammen über die Wiesen spaziert und dann habe ich einen Hund geschenkt bekommen. Von meinem Papa den Waldi.",
      "EN": "And then there was a dog with lots of babies so lots of puppies and I was allowed to choose one. They really let me pick one. I've always wanted a dog. Then these puppies lie there and I immediately fell in love with one such a little rascal then I called him Waldi and immediately took him on my arm. Then I had this dog and we walked across the meadows together and then I got a dog as a present. From my dad. Waldi.",
      "phase": 0
    },
    {
      "file_name": "P01_F_M_05_1.mp4",
      "display_name": "Log_007_04",
      "tags": "Holiday Holidays Money Fight Poem Urlaub Geld Streit Gedicht",
      "DE": "Und ich erinnere mich noch wir waren einmal im Urlaub. Also wir konnten auch oft in den Urlaub fahren wir hatten echt die Kohle. Das sie einmal so laut gestritten haben meine Eltern das ich nebenan im Zimmer die ganze Zeit irgendwelche Gedichte erfunden habe um dieses Geschrei zu übertönen",
      "EN": "And I remember we were on holiday once. So we could also often go on holiday we really had the money. That they once argued so loudly my parents that I invented poems all the time in the next room to drown out this screaming.",
      "phase": 0
    },
    {
      "file_name": "P01_F_S_01_1.mp4",
      "display_name": "Log_12_1",
      "tags": "Lemonade Sports Waldi Limo Sport",
      "DE": "Ja und einmal nachdem wir trainiert haben hat mein Vater mir bei einer Limo gesagt das er total stolz auf mich ist. Also das hat mich voll gefreut aber er meinte eigentlich das er stolz ist das ich mich so gut um Waldi kümmer und das habe ich ja wirklich gemacht. Also Waldi war ja mein ein und alles. Und das er es schön findet das ich so viel Verantwortung übernehme. ",
      "EN": "Yeah and once after we worked out my dad told me on a soda that he was totally proud of me. Well that made me really happy but he actually said that he is proud that I take care of Waldi so well and I really did. Well Waldi was my everything. And that he likes it that I take on so much responsibility. ",
      "phase": 0
    },
    {
      "file_name": "P01_F_S_03_1.mp4",
      "display_name": "Log_12_3",
      "tags": "Sibling Pregnant Geschwister Geschwisterchen Schwanger",
      "DE": "Ja die nächsten Monate waren eigentlich ziemlich cool. Mein Vater war die ganze Zeit zu Hause also er ist überhaupt nicht mehr weggefahren und das fand ich natürlich auch total schön. Also wir haben ganz viel gemacht und er hat sich auch um meine Mutter gekümmert. Die war auch ziemlich gut drauf war auch richtig glücklich. Ja es war eine schöne Zeit und ich habe mich total gefreut auf mein neues Geschwisterchen.",
      "EN": "Yeah the next few months were actually pretty cool. My father was at home the whole time so he didn't go away at all and of course I really liked that. Well we did a lot and he took care of my mother too. She was in a pretty good mood too. She was really happy. Yes it was a great time and I was really looking forward to my new sibling.",
      "phase": 0
    },
    {
      "file_name": "P01_F_S_05_1.mp4",
      "display_name": "Log_12_5",
      "tags": "Baby It Newborn Brother Sister Es Geburt Kleinkind Neugeborenes Bruder Schwester",
      "DE": "Ja meine Mutter die war ziemlich schnell wieder ziemlich depressiv. Irgendwie kam sie gar nicht damit klar war völlig überfordert und mein Vater hat sich die ganze Zeit um \"Es\" gekümmert ist irgendwie gar nicht von der Seite gewichen und war die ganze Zeit nur da. Meine Mutter hat wieder angefangen zu saufen zu heulen und ja dann war alles irgendwie schlimmer als es vorher war. ",
      "EN": "Yeah my mother was rather quickly depressed again. Somehow she couldn't handle it at all was completely overwhelmed and my father took care of \"it\" all the time somehow didn't leave her side and was only there the whole time. My mother started drinking again crying and yes then everything was somehow worse than it was before. ",
      "phase": 0
    },
    {
      "file_name": "P01_F_S_07_1.mp4",
      "display_name": "Log_12_7",
      "tags": "Alone Waldi Lonely Alleine Waldi Einsam",
      "DE": "Ja auf einmal war mein Vater nicht mehr so oft unterwegs. Er war die ganze Zeit zu Hause und hat sich nur um \"Es\" gekümmert. Ja und dann war ich eben mit Waldi draußen oder hab halt allein mein Ding gemacht",
      "EN": "Suddenly my father wasn't on the road as often. He was at home all the time taking care of \"it.\" Yeah and then I went outside with Waldi or I did my thing by myself.",
      "phase": 0
    },
    {
      "file_name": "P01_F_S_08_1.mp4",
      "display_name": "Log_12_8",
      "tags": "Waldi Father Ignored AloneLonely Vater Ignoriert Allein Einsam",
      "DE": "Ja und das war auch gut so ich hab mich erst gefreut auf dieses neue Leben. Ja aber ich war auch total eifersüchtig. Auf einmal war so als ob ich gar nicht mehr richtig existiere oder sowas. Ich war einfach nicht mehr so wichtig zumindest hat es sich so angefühlt.",
      "EN": "Yes and that was a good thing at first I was looking forward to this new life. Yeah but I was totally jealous too. Suddenly it was like I didn't even exist anymore or something. I just wasn't that important anymore at least that's how it felt.",
      "phase": 0
    },
    {
      "file_name": "P01_F_TV_02_1.mp4",
      "display_name": "Log_13_2",
      "tags": "Baby TV Movie Terror It Brother Sister Fernsehen Film Stress Es Kleinkind Bruder Schwester",
      "DE": "\"Es\" krabbelte die ganze Zeit über den Boden das hat natürlich auch was genervt. Ich wollte eigentlich den Film schauen und das Ding ist einfach die ganze Zeit da irgendwie über den Boden rumgekrochen hat geheult und die Stimmung war nicht gerade so die aller beste. Ich wollte dann halt auch irgendwie einfach mal ein bisschen machen was ich will und war auch aufgekratzt wollte auch nicht ins Bett gehen. Ich habe mich dann auch einfach auf den Boden fallen lassen und hab irgendwie einfach Blödsinn gemacht.",
      "EN": "\"It\" was crawling all over the floor which of course was annoying. I actually wanted to watch the movie and the thing just kind of crawled around the floor all the time cried and the atmosphere wasn't the best of all. I just wanted to do somehow just a little bit of what I want and was also scratched up didn't want to go to bed either. I just dropped on the floor and just did something stupid.",
      "phase": 0
    },
    {
      "file_name": "P01_F_TV_04_1.mp4",
      "display_name": "Log_13_4",
      "tags": "Blame Lie Mother Scapegoat Guilty Vorwurf Schuld Beschuldigt Lüge Lügen Mutter Schuldige",
      "DE": "Und ich hab dann erst erfahren das meine Mutter ihm gesagt hat das ich das gewesen wäre. Sie hat zu ihm gesagt das ich dieses Kind auf den Boden geworfen hätte. ",
      "EN": "And I only found out later that my mother told him that it had been me. She said to him that I threw that kid on the floor. ",
      "phase": 0
    },
    {
      "file_name": "P01_F_TV_05_1.mp4",
      "display_name": "Log_13_5",
      "tags": "Liar Disbeliev Father Blame Lie Scapegoat Guilty Unglaube Vorwurf Schuld Beschuldigt Lüge Lügen Mutter Schuldige",
      "DE": "Ja und ich fand es einfach nur gemein weil ich hab versucht es ihm zu erklären. Die ganze Zeit. Also ich habe ihm die ganze Zeit gesagt das ich das nicht war und er hat mir einfach nicht geglaubt.",
      "EN": "Yeah and I just thought it was mean because I tried to explain it to him. All the time. So all this time I told him that it wasn't me and he just didn't believe me.",
      "phase": 0
    },
    {
      "file_name": "P01_F_TV_06_1.mp4",
      "display_name": "Log_13_6",
      "tags": "Ignored Liar Father Disbeliev RageIgnoriert Lügner Lügnerin Lüge Vater Unglaube Wut",
      "DE": "Ich habe auch gemerkt das mein Vater sich immer mehr von mir abwendet und das er.. Das ich ihm einfach scheiß egal war irgendwann.",
      "EN": "I also noticed that my father is turning more and more away from me and that he.. That he just fucking didn't care about me someday.",
      "phase": 0
    },
    {
      "file_name": "K01_F_1.mp4",
      "display_name": "Log_14",
      "tags": "",
      "DE": "Dann ist mein Vater einfach abgehauen hat dieses verfickte priviligierte Kind mitgenommen. Und ich war einfach nicht gut genug oder was? Welcher scheiß Vater macht das? Tja was... Meine Mutter hat mir einfach erzählt das er jetzt weg ist das er einfach woanders hingezogen ist. In so ein. Dann war ich ihm einfach so scheiß egal. Ich mein was ist das für ein Vater huh was ist denn das für ein scheiß Vater. Verdammter..",
      "EN": "Then my dad just took off took that privileged fucking kid. And I just wasn't good enough or what? What kind of fucking father does that? Well what... My mother just told me that he's gone that he just moved somewhere else. In one like this. Then he just didn't give a shit about me. I mean what kind of father is that huh what kind of fucking father is that? Damn it..",
      "phase": 1
    },
    {
      "file_name": "P02_F_H_02_1.mp4",
      "display_name": "Log_15_1",
      "tags": "Mother Father Jessika Sleeping Fucking Alone Sad Isolation Replacement Mutter Vater Schlafen Ficken Sex Allein Traurig Isoliert Ersatz",
      "DE": "Ich hab mich halt einfach immer weiter zurückgezogen entweder war ich auf meinen Zimmer oder war einfach mit Waldi draußen. Meine Mutter war manchmal nächtelang nicht da was weiß ich was sie gemacht hat. Rumgevögelt wahrscheinlich wenns noch ging.",
      "EN": "I just kept retreating further and further either I was in my room or just out with Waldi. My mother wasn't there sometimes for a few nights I don't know what she did. Probably screwing around if she still could.",
      "phase": 1
    },
    {
      "file_name": "P02_F_H_03_1.mp4",
      "display_name": "Log_15_2",
      "tags": "School Jessika Sad Isolation Alone Schule Traurig Isoloiert Alleine",
      "DE": "Ich hatte auch keinen Bock mehr in die Schule zugehen das hat mir einfach keinen Spaß mehr gemacht. Hat mich angekotzt und ich wollte auch mit keinem mehr reden oder so. Wusste auch gar nicht was ich sagen soll.",
      "EN": "I didn't want to go to school either I just didn't enjoy it anymore. Pissed me off and I didn't want to talk to anybody or whatever. I didn't know what to say.",
      "phase": 1
    },
    {
      "file_name": "P02_F_H_04_1.mp4",
      "display_name": "Log_16",
      "tags": "Mother Boyfriend Sex Partner Replacement Breakfast School Father Stepfather Fucking Sleeping Mutter Freund Ersatz Frühstück Schule Vater Stiefvater Ficken Schlafen",
      "DE": "Ja und irgendwann saß dann dieser Typ da bei uns in der Küche in seiner verwaschenen Feinripunterhose. Heinrich. Ja und der Heinrich der war dann irgendwie jeden Morgen da. Wenn ich in die Schule musste saß er da rum.",
      "EN": "Yeah and at some point this guy was sitting in our kitchen in his washed-out rib underpants. Heinrich. Yes and Heinrich he was there somehow every morning. When I had to go to school he'd sit there. ",
      "phase": 1
    },
    {
      "file_name": "P02_F_H_08_1.mp4",
      "display_name": "Log_16_4",
      "tags": "Asshole Jessika Family Leave Unwanted Arschloch Familie Verlassen Ungewollt",
      "DE": "Der Heinrich hätte am liebsten gehabt das ich verschwinde aus dem Haus. Hat mich von Anfang an nicht leiden können und hat mich auch spüren lassen das ich einfach störe und das ich der letzte Dreck bin.",
      "EN": "Heinrich would have liked me to disappear from the house. Didn't like me from the beginning and let me feel that I just bothered and that I am only a piece of dirt.",
      "phase": 1
    },
    {
      "file_name": "P02_F_H_10_1.mp4",
      "display_name": "Log_17",
      "tags": "Heinrich Asshole Jessika Arschloch",
      "DE": "Ja der Heinrich. So ein richtig strenger Typ so ein geiler Machtmensch. Es hat ihm schon ein bisschen Spaß gemacht mich fertig zu machen. Das hat man schon gemerkt.",
      "EN": "Yes Heinrich. Such a really strict guy such a wicked power person. He had fun while humiliating me. You could tell.",
      "phase": 1
    },
    {
      "file_name": "P02_S_S_01_1.mp4",
      "display_name": "Log_19_1",
      "tags": "Running Forget School Sports Laufen Sport Vergessen Schule",
      "DE": "Also auch in der Schule. Ich meine ich habe es gehasst in die Schule zu gehen war echt nur noch total unerträglich. Aber das einzige was wirklich mir noch gefallen hat war einfach zu laufen und irgendwie alles zu vergessen.",
      "EN": "So also in school. I mean I hated going to school. It was really just unbearable. But the only thing I really liked was to just run and somehow forget everything.",
      "phase": 1
    },
    {
      "file_name": "P02_S_S_03_1.mp4",
      "display_name": "Log_19_3",
      "tags": "Running Forget School Sports Laufen Sport Schule Jessika",
      "DE": "Ja und ich war halt auch ziemlich gut deswegen war das einfach für mich genau das Richtige. Also keiner konnte so schnell laufen wie ich und deswegen war ich auch einfach die Beste.",
      "EN": "Yeah and I was pretty good too so it was just the right thing for me. So nobody could run as fast as me and that's why I was simply the best.",
      "phase": 1
    },
    {
      "file_name": "P02_S_S_04_1.mp4",
      "display_name": "Log_19_4",
      "tags": "Running School Best Fastest Fast Run Jog Laufen Schule Beste Schnellste Schnell",
      "DE": "Ja und ich hatte auch einen ganz coolen Sportlehrer. Also der dann Bock hatte mich einfach zu trainieren auch außerhalb der Schule. Das hat der mir echt angeboten. Also weil er meinte das er was in mir sieht und das er das fördern will und das es vielleicht sogar ein Stipendium geben kann.",
      "EN": "Yeah and I had a really cool gym teacher too. He was just motivated to train me even outside of school. He really offered me that. Because he said that he sees something in me and that he wants to support it and that there may even be a scholarship.",
      "phase": 1
    },
    {
      "file_name": "P02_S_S_05_1.mp4",
      "display_name": "Log_19_5",
      "tags": "Trainer Scholarship Training Teacher Lehrer Stipendium Trainieren Coach",
      "DE": "Ja und das hat mich natürlich gefreut das er ausgerechnet bei mir das gesehen hat. So. Das war halt der Einzige der mir das Gefühl gegeben hat das ich was besonderes bin.",
      "EN": "Yes and of course I was glad that he saw that in me of all people. Like this. He was just the only one who made me feel special.",
      "phase": 1
    },
    {
      "file_name": "P02_F_H_12_1.mp4",
      "display_name": "Log_20_1",
      "tags": "Mother Pregnant Heinrich Baby Sibling Mutter Schwanger Säugling Geschwisterchen Geschwister",
      "DE": "Ja und dann war meine Mutter wieder schwanger. Es war irgendwie echt witzig weil ich mein wo sie zweimal schon so toll hingekriegt hat will sie sich das ein drittes Mal irgendwie ans Bein binden. Aber ok ist ja nicht mein Problem.",
      "EN": "Yeah and then my mom got pregnant again. It was kind of funny because I mean she managed to botch it twice already she wants to try it for a third time somehow. But okay it's not my problem.",
      "phase": 1
    },
    {
      "file_name": "P02_S_S_07_1.mp4",
      "display_name": "Log_20_3",
      "tags": "Training School best Fastest Running Fast Run Job Schule Beste Schnellste Schnell Laufen ",
      "DE": "Ja und dann sind wir zu diesen Meisterschaften gefahren. Also nur die besten aus der Schule waren dabei ich war natürlich für die Läufer die Beste. Wir kommen in dieses Stadion rein und es ist so proppen voll und das war so unglaublich. Du rennst da und alle schreien und feuern dich an es war einfach echt. Es war ein totales Glücksgefühl es war unbeschreiblich.",
      "EN": "Yeah and then we went to those championships. So only the best from school were there of course I was the best for the runners. We get into this stadium and it's so crowded and that was so incredible. You run there and everyone screams and cheers you on it was just really. It was a total happiness it was indescribable.",
      "phase": 1
    },
    {
      "file_name": "P02_S_S_09_1.mp4",
      "display_name": "Log_20_5",
      "tags": "Scholarship Move out Travel Family Home Trainer Teacher Stipendium Ausziehen Reisen Familie Zuhause Haus Lehrer",
      "DE": "Mein Trainer hat mir gesagt das ich das Zeug dazu habe und das ich echt Chancen so ein Stipendium zu kriegen. Ja und dann könnte ich von zuhause weg dann wäre ich die ganze Zeit unterwegs und könnte nur noch das machen worauf ich Bock habe.",
      "EN": "My coach told me that I had what it takes and that I really had a chance to get a scholarship like this. Yes and then I could leave home then I would be on the road all the time and could only do what I want to do.",
      "phase": 1
    },
    {
      "file_name": "P02_S_W_01_1.mp4",
      "display_name": "Log_21_1",
      "tags": "Waldi Throphy Winning Competition Championchip Winner Trophäe Pokal Gewonnen Sieg Wettbewerb Sieger",
      "DE": "Ja und dann ist er nicht mehr raus hat nichts mehr gefressen. Wir sind zum Tierarzt. Es war dann Krebs und ich war dann wenigstens dabei aber musste dann eingeschläfert werden. Es war echt das letzte was ich von meinem Vater noch hatte das war doch einfach mein ja mein einziger Freund. So...",
      "EN": "Yeah and then he did not go out anymore did not eat anything. We went to the vet. It was cancer and I was there at least but then he had to be put down. It was really the last thing I had from my father it was just my only friend. So...",
      "phase": 1
    },
    {
      "file_name": "P02_S_W_02_1.mp4",
      "display_name": "Log_21_2",
      "tags": "best friend Sick Cancer Doctor Vet Bester Freund Krank Krebs Arzt Tierarzt",
      "DE": "Und dann kommst du mit diesem unfassbar geilen schönen Pokal nach Hause und... Ja und dann. Die blöden Wichser haben mir das nicht gesagt das er nichts mehr gefressen hat oder sowas. Die haben das nicht gesagt. Sie hätten mich ja auch vielleicht irgendwie benachrichtigen können oder so. Ich war nicht da. Ich dachte das sie sich vielleicht kümmern.",
      "EN": "And then you come home with this incredibly awesome beautiful trophy and... Yeah and then. Stupid motherfuckers didn't tell me he wasn't eating or anything. They didn't say that. You could've contacted me somehow or something. I wasn't there. I thought they would take care.",
      "phase": 1
    },
    {
      "file_name": "P02_S_S_10_1.mp4",
      "display_name": "Log_22",
      "tags": "Injuries Death dead Waldi Verletztung Tod tot",
      "DE": "Ja und dann war erstmal nix mehr mit trainieren. Ja und dann habe ich mich irgendwie auch die ganze Zeit verletzt also ich hatte total blöde dumme Unfälle. So von wegen Finger in der Autotür eingequetscht oder noch schlimmer in der Dusche ausgerutscht. Also ich war einfach die ganze Zeit nur noch verletzt und konnte einfach nicht mehr trainieren. Dann habe ich erst gemerkt wie bescheurt dieser ganze Sport eigentlich ist. Das du die ganze Zeit nur rennst rennst wie so ein Iditot. Ja und dann habe ich mir gedacht dass das mich auch nervt. Das mich das auch jetzt langweilt. Tja und dann ja dann hab ich es halt einfach sein lassen. So. Hatte ich einfach keinen Bock mehr.",
      "EN": "Yes and then it was over with training. Yeah and then I kind of hurt myself all the time too so I had totally stupid stupid accidents. I squeezed fingers in the car door or even worse slipped in the shower. So I was just hurt all the time and just couldn't train anymore. Then I realized how stupid this whole sport actually is. You just running all the time running like an Iditot. Yeah and then I figured it was annoying me too. That I'm bored of it now. Well and then well then I just let it go. Like this. I just wasn't in the mood anymore.",
      "phase": 1
    },
    {
      "file_name": "P03_Su_Be_01_1.mp4",
      "display_name": "Log_23_01",
      "tags": "teacher rape harrasment jessika sport run atheltics school police sad suicide rage anger sex gym changing room Lehrer Vergewaltigung Vergewaltigt Belästigt Sport Laufen Leichtathletik Schule Polizei Traurig Selbstmord Wut Wütend Trainer Turnhalle Umkleide",
      "DE": "Ja und dann hatte ich den geilsten Sommer meines Lebens. Also ich bin schon die ganze Zeit zu Konzerten gegangen und ich wollte einfach raus ich hatte keinen Bock mehr. Keinen Bock mehr rumzujammern und rumzuliegen und mir selber Leid zu tun was für eine Scheiße. Ne ich will einfach raus will feiern. Ich wollte saufen ich wollte rauchen. Ich wollte einfach ein bisschen unter Leuten sein. ",
      "EN": "Yes and then I had the hottest summer of my life. So I've been to concerts all the time and I just wanted to get out I did not feel like it anymore. No moaning around lying around and feeling sorry for myself what a shit. No I just want to get out celebrate. I wanted to drink I wanted to smoke. I just wanted to be a little bit of people.",
      "phase": 2
    },
    {
      "file_name": "P03_Su_Be_03_1.mp4",
      "display_name": "Log_23_03",
      "tags": "Concert Sasha Beer Party Summer Konzert Sascha Bier Sommer",
      "DE": "Und dann haben wir einfach ja einfach geknutscht. Ey das war echt magisch. Im Hintergrund geile Musik und dann dieser Typ und wir haben so viel Bier gesoffen in der Nacht und dann habe ich auch das erste Mal gekifft und es war einfach es war so geil.",
      "EN": "And then we just just made out. Hey that was really magical. In the background cool music and then this guy and we have drunk so much beer at night and then I also smoked weed for the first time and it just it was so just cool.",
      "phase": 2
    },
    {
      "file_name": "P03_Su_Sa_01_1.mp4",
      "display_name": "Log_24_01",
      "tags": "sasha boyfriend love partner jessika Guy Happy Sascha Freund Liebe Glücklich Typ",
      "DE": "Ja Sascha... So dunkle Augen wie so ein Wolf hab ich immer gedacht. Wie so ein großes dunkles Wesen und es war echt so... Ey wenn der mich nur festgehalten hat und du konntest die Muskeln spüren und du hast dich einfach so beschützt gefühlt und da war einfach jemand der hat sich gekümmert. Und wie er mich angeschaut hat ey wie er mich angelächelt hat wie er mich zum lachen gebracht hat. Es war echt... Es war einfach. Auf einmal hab ich wieder angefangen zu leben ich hab auf gemacht und gedacht \"Ey ihr könnt mich alle mal am Arsch lecken\". Weißt du? Diese ganzen verdammten Wichser. Endlich ist da jemand der einfach sieht wie ich bin wer ich bin und mich dafür liebt wie ich bin. Ey und man konnte einfach sein wie man ist und wurde so aktzeptiert. Da musste ich nicht nachdenken was ich sage oder passt das jetzt alles. Nein du bist einfach du und du lebst in dem Moment und du machst einfach nur worauf du Bock hast. Scheiß egal was alle denken.",
      "EN": "Yes Sasha... Such dark eyes like a wolf I always thought. Like such a big dark creature and it was really so... Hey if he just held me and you could feel those muscles and you just felt protected and there was just someone who cared. And the way he looked at me the way he smiled at me the way he made me laugh. It was real... It was easy. Suddenly I started to live again I opened up and thought \"Ey you can all kiss my ass\". You know? All these fucking motherfuckers. Finally there is someone who just sees who I am who I am and who loves me for who I am. Ey and you could just be as you are and were accepted. I didn't have to think about what I was saying or is it all right now. No you're just you and you live in the moment and you just do what you want. Fuck what everybody thinks.",
      "phase": 2
    },
    {
      "file_name": "P03_Su_Sa_04_1.mp4",
      "display_name": "Log_24_04",
      "tags": "Sasha Concert Fun Summer Sascha Konzert Spaß Sommer",
      "DE": "Ja und dann sind wir einfach nachts zum See gefahren nach diesem geilem Konzert. Alle völlig durchgeschwitzt durchgesifft. Total besoffen. Und dann waren wir an diesem See. Ey und alles schwarz ganz alleine die geilen Sterne und dann lagen wir da. Geraucht geredet gelacht und dann sind wir alle nackt in diesen See gegangen. Ey wir hatten Spaß wie Kinder. Ey das war eine Freiheit. Ich hab alles rausgeschrien und das hat so gut getan. Ja und dann haben wir da geschlafen unter freiem Himmel.",
      "EN": "Yeah and then we just went to the lake at night after that awesome concert. All completely sweaty stinky. Totally drunk. And then we were at this lake. Hey and all black all alone the beautiful stars and then we lay there. Smoked talked laughed and then we all went naked into the lake. Hey we had fun like kids. Hey that was a freedom. I yelled it all out and it did so good. Yeah and then we slept there out in the open.",
      "phase": 2
    },
    {
      "file_name": "P03_Su_Fe_02_1.mp4",
      "display_name": "Log_25_02",
      "tags": "Festival Group Kings Cool Envy Gruppe Könige Coolsten Neid",
      "DE": "Ey das ist ein geiles Gefühl vorallen Dingen wenn du merkst das einen alle Anderen auch ein bisschen cool finden und beneiden. Ne? \"Ey schau mal die da hinten\". Ja aber wir waren auch einfach cool. Wir waren am lautesten und wir hatten einfach am meisten Spaß. Ja weil uns einfach alles scheiß egal war ja? Wir hatten auch einfach nix zu verlieren. Wir haben uns einfach richtig gegeben. Boah und einfach den Excess einfach laufen lassen. Weißt du drauf scheißen was Andere denken. Einfach Gas geben locker lassen und einfach machen worauf du Bock hast. Hey sollen sie sich halt alle anstellen sollen sie halt alle blöd schauen aber mir war das so scheiß egal ey. Ich wollts mir so geben ich wollts mir richtig geben. Ich wollte mich richtig richtig richtig fertig machen. Ja und wenn du dann nicht alleine bist wenn du dann endlich jemanden hast der dich versteht der genauso tickt. Ey dann fühlst du dich so unsterblich du bist unverwundbar. Du bist so mächtig ey du kannst alle komplett überrollen. Ja das war geil.",
      "EN": "Ey this is just an awesome feeling especially when you notice that all the others find you cool and envy you. Right? \"Yo look at those guys\" Yeah we were just cool. We were the loudest and just had the most fun. Yeah because we just didn't give a shit about anything right? We just had nothing to lose. We just got each other right. Boah and just let the excess run. You know don't give a shit on what others think. Just step on the gas let go and just do what you want. Hey let them all stand in line let them all look stupid but I didn't give a shit. I was gonna give it to myself I was gonna give it to myself. I wanted to really really really get wasted. Yeah and then when you're not alone then you finally have someone who understands you and ticks the same way. Hey then you feel so immortal you're invulnerable. You're so powerful you can roll over everybody. Yeah that was awesome.",
      "phase": 2
    },
    {
      "file_name": "P03_Su_Fe_03_1.mp4",
      "display_name": "Log_25_03",
      "tags": "others stomp stories lie scare might power Provoke Camping Andere Zeltplatz Provozieren Geschichten Lügen Angst Macht ",
      "DE": "Und auch einfach so ein bisschen provozieren anzuecken. Weißt du die Leute so ein bisschen zu erschrecken. Was ich ja auch früher so gemacht hab diese Macht zu spüren wenn dir jeder Idiot alles glaubt weil sie einfach so scheiße blöd sind. Die Menschen sind so dumm ey. Unglaublich.",
      "EN": "And just a little bit provocative too. You know scaring people a little bit. Like what I used to do. Feel this power when every idiot believes you because they're just so fucking stupid. People are so stupid yo. Unbelievable.",
      "phase": 2
    },
    {
      "file_name": "P03_Su_Fe_04_1.mp4",
      "display_name": "Log_25_04",
      "tags": "Lie Story Prank Panic Sasha Lüge Geschichte Scherz Panik Sascha",
      "DE": "Ja und Sascha ist da auch einfach geil. In einer Nacht voll geile Stimmung auf dem ganzen Zeltplatz wir saßen da alle Lagerfeuer Bierchen Musik. Es war einfach eine riesen Party es war echt eine geile Stimmung so. Und der Sascha geht zu seinem Auto und ich hab mir schon gedacht jetzt kommt irgendwie was. Und dann kommt der zurück und hat so eine Maske auf und hat eine Kettensäge in der Hand und fängt an mit der Kettensäge rumzurennen und alle anzuschreien und wir haben natürlich auch alle losgeschrien. \"Woah Hilfe was ist jetzt los?\" und alle haben sich in die Hose gemacht ey voll die Panik auf dem Zeltplatz riesen Alarm. Dachten echt da sei irgendwie so ein Massenmörder auf einmal unterwegs. Und alle voll sich eingenässt und das war einfach so geil es war so großartig. Wir waren einfach die geilsten ey. Am liebsten wären alle abgereist in der Nacht und wir hätten den ganzen Platz für uns gehabt. Diese ganzen kleinen Pussys ey.",
      "EN": "Yeah and Sasha's just awesome too. One night full of fun on the whole campground we were all sitting there bonfire beer music. It was just a huge party it was really a great atmosphere. And Sasha goes to his car and I already thought something was coming. And then he comes back with a mask on and has a chain saw in his hand and starts running around with the chain saw and yelling at everyone and of course we all started screaming. \"Whoa help what's going on now?\" and everybody pissed their pants panicked on the campsite huge alarm. Thought there was some kind of mass murderer on the move. And everyone soaked themselves and that was just so awesome it was so great. We were just the hottest ey. Everyone would have liked to leave that night and we would have had the whole place to ourselves. All those little pussies.",
      "phase": 2
    },
    {
      "file_name": "P03_Su_Fe_05_1.mp4",
      "display_name": "Log_25_05",
      "tags": "chainsaw prank murderer mask police fire car Kettensäge Scherz Mörder Maske Polizei Feuer Auto",
      "DE": "Boah und dann kommt dieser Typ ja dieser Aufseher oder Platzwart oder was auch immer. Kommt natürlich völlig alarmiert von diesem ganzen Geschrei und Rumgeflenne und dem ganzen Eingenässe. Dann kommt der und sagt wir müssen sofort gehen und sowas geht hier nicht uner er ruft jetzt die Polizei und wuwuwuwuwu. Ey und dann einfach echt voll auf die Fresse. Den so niedergeboxt und ihm einfach richtig reingetreten. Ihm so richtig alles mal rausgeprügelt und dann liegt er da und winselt rum und hier nix mehr mit Polizei sondern einfach echt voll am bluten am spucken am rumröcheln. Gedacht \"Ey dir hau ich so in deine Fresse rein eh\". Tja und dann sind wir halt einfach gefahren haben einfach so alles gelassen. Haben den da liegen lassen und sind halt gefahren.",
      "EN": "Whoa and then this guy comes this warden or groundsman or whatever. Comes of course completely alarmed by all this screaming and whining and wetness. Then he comes and says we have to leave immediately and something like that is not allowed here he now calls the police and wuwuwuwuu. Hey and then he just got punched really hard into the face. I punched him down like that and just kicked right into him. He had everything beaten out of him and then he lies there and whimpers around and no police anymore just bleeding spitting rattling. I thought \"Hey I'm gonna bust your face\". Well and then we just drove off just left everything as it was. Just left him lying in the dirt and were gone.",
      "phase": 2
    },
    {
      "file_name": "P03_Su_Fe_06_1.mp4",
      "display_name": "Log_25_06",
      "tags": "security guy guard beating up fighting bullying attack fight blood dead Platzwart Typ Wache Verprügeln Bully Angreifen Kampf Blut Tot Tod",
      "DE": "Ja Sascha hat erstmal angefangen auf den einzuprügeln. In der einen Hand die Kettensäge und erstmal hier schönen Tritt in die Eier das er zu Boden gegangen ist. Ja und dann lag der da und ich hab mir nur gedacht \"Woah das ist eigentlich geil eh. Das ist genau das worauf ich gewartet hab\". Mal so einem wiederlichem Sack einfach richtig eine reinzudonnern. Ja und dann hab ich auch einfach zugetreten und das hat sich echt richtig geil angefühlt. Irgendwann hab ich auch nicht mehr nachgedacht also ich hab echt gemerkt ich bin wie in so einem Rausch. Dann kamen noch ein paar Andere dazu und dann hast du echt zusammen einfach los getreten. Und gemerkt wie du da jemanden gerade fertig machst und der liegt da und du kannst den einfach weg machenso. Ja und dann haben wir den da einfach liegen lassen. Haben unser Zeug noch zusammengepackt und haben diese ganzen Wichser da einfach zurückgelassen. Ich meine wir hatten unseren Spaß.",
      "EN": "Yeah Sasha started beating him up. Still one hand on the chainsaw and first a nice kick in the balls which send him to the ground. Yes and then he lay there and I just thought to myself \"Woah that's actually awesome eh. This is exactly what I've been waiting for. Just punching one of those disgusting fatties.\" Yeah and then I just kicked him and it felt really awesome. At one point I didn't think anymore I realized I was in a haze. Then some others joined and then you really just kicked down together. And noticed how you're killing someone right now and they're lying there and you can just end them like this. Yeah and then we just left him there. Got our stuff packed up and just left all these motherfuckers there. I mean we had our fun.",
      "phase": 2
    },
    {
      "file_name": "P03_Su_Gr_01_1.mp4",
      "display_name": "Log_26_01",
      "tags": "school friends group fun Freedom Schule FreundeGruppe Spaß Freizeit Freiheit",
      "DE": "Ja und auf die Schule hatte ich auch einfach keinen Bock mehr. Ich bin nicht mehr hingegangen. Wir hatten einfach was viel besseres zu tun ey wir haben uns getroffen. Wir haben einfach nur gesoffen geraucht und das war einfach so viel besser und das hat mir so viel mehr gebracht als dieser ganze Scheiß. Das braucht kein Mensch. Wir haben unsere Zeit sinnvoll genutzt wir waren wer und das war einfach so viel besser als alles was du irgendwo lernen kannst. Das ist einfach das Leben.",
      "EN": "Yeah and I just didn't want to go back to school either. I didn't go back. We just had something much better to do hey we met. We just got drunk smoked and it was just so much better and it did me so much more good than all this shit. Nobody needs that. We made good use of our time we were someone and that was just so much better than anything you can learn anywhere. That's just life.",
      "phase": 2
    },
    {
      "file_name": "P03_Su_Gr_02_1.mp4",
      "display_name": "Log_26_02",
      "tags": "group system streets life school free time kings respect Gruppe System Leben Straße Schule Freizeit Könige Respekt",
      "DE": "Dieses scheiß System das fickt uns eh alle. Wollen aus uns irgendwelche Sklaven machen. Da habe ich keinen Bock drauf. Weißt du bevor ich mich von diesem System ficken lasse ficke ich lieber das System. Ja und dann sind wir einfach durch die Straßen gezogen haben allen gezeigt wer wir sind.",
      "EN": "The fucking system fucks us all anyway. Want to make us slaves of some kind. I don't feel like it. You know before I let this system fuck me I'd rather fuck the system. Yeah and then we just wandered the streets showed everyone who we were.",
      "phase": 2
    },
    {
      "file_name": "P03_Su_Gr_03_1.mp4",
      "display_name": "Log_26_03",
      "tags": "fights violence fear Prügeln Kämpfen Gewalt Angst",
      "DE": "Und was für ein geiles Gefühl ey was für Schiss die Leute haben auf einmal. Auf einmal sehen sie dich vorher warst du völlig unsichtbar und jetzt machen sich alle ins Hemd. Ja aber ich hab auch keinen Bock das mich jemand so schief anschaut ja? Ich hab auch keinen Bock mich blöd anmachen zu lassen. Und dann muss man halt einfach eine Abreibung kriegen ich finde das mans dann nicht anders verdient hat. Einfach mal so ein paar auf die Fresse.",
      "EN": "And what a awesome feeling hey what fear people have all of the sudden. Suddenly they see you before that you were completely invisible and now everybody's getting all worked up. Yeah but I'm not in the mood for someone to look at me in a crooked way okay? I don't want to be hit on. And then you just have to get a beating you don't deserve it any other way. Just like that kick someone in the face.",
      "phase": 2
    },
    {
      "file_name": "P03_Su_Gr_04_1.mp4",
      "display_name": "Log_26_04",
      "tags": "racist violence german germany turkish city Foreigners Rassist Gewalt Deutsch Deutschland Türkisch Stadt Ausländer",
      "DE": "Diese scheiß Kanaken ey überall wo du hinschaust. Ey da muss man doch einfach säubern. Ich mein was ist denn das das ist mein Land. Das ist mein Deutschland. Ich bin Deutsche. Wir sind alle Deutsche. Da hab ich einfach keinen Bock drauf ey weg mit dem Gesocks.",
      "EN": "Those fucking dagos everywhere you look. Hey you just have to clean it up. I mean what is this this is my country. This is my Germany. I'm German. We're all Germans. I just don't feel like it get rid of this junk.",
      "phase": 2
    },
    {
      "file_name": "P03_Su_Gr_05_1.mp4",
      "display_name": "Log_26_05",
      "tags": "Racist German Rassist Deutsch",
      "DE": "Ja und ich mein früher ging das vielleicht noch. Weißt du da hattst du halt irgendwie mal ein so einen Bimbo oder sowas in der Klasse oder irgendso einen Ali. Ey aber das wurd immer mehr. Ich mein was ist denn das ich muss doch in meiner eigenen Klasse noch Deutsch sprechen können und was soll ich lernen wenn ich überall nur dieses rumgestammel hab? Kein anständiges Deutsch mehr kein Wort bringen die raus.",
      "EN": "Yeah and I mean maybe it used to be okay. You know you just kind of had a bimbo or something in class or an Ali. But they became more and more. I mean what is this I still have to be able to speak German in my own class and what should I learn if I have only this stammering everywhere? They won't bring out one sentence of decent German.",
      "phase": 2
    },
    {
      "file_name": "P03_Su_Gr_06_1.mp4",
      "display_name": "Log_26_06",
      "tags": "Racist System German Rassist Deutsch",
      "DE": "Weißt du und dann wird da Rücksicht drauf genommen. Was ist das denn für ein System? Da wird sich um die gekümmert weißt du die müssen mitkommen die müssen was lernen. Ja und was ist mit mir? Was ist mit uns? Die wollen das alles unterlaufen. Ich mein wer soll hier ausgebildet werden wir oder die? Ich geh nicht mehr zu dem Dreckspack. ",
      "EN": "You know and then they it gets taken into account. What kind of system is that? They're being taken care of they have to keep up or something. Yeah and what about me? What about us? They want to undermine all this. I mean who's going to be trained here us or them? I'm not going to tolerate those bastards. ",
      "phase": 2
    },
    {
      "file_name": "P03_R_NF_01_1.mp4",
      "display_name": "Log_27_01",
      "tags": "Family Beer Smoke Smoking Fear Friends Friend Familie Bier Rauchen Angst Freunde Freund",
      "DE": "Und wenn wir ein Bier trinken dann verstehen wir uns einfach und jeder merkt das er nicht stören kann. Das er sich lieber verpissen soll. Es hat eh jeder Angst vor uns. Wenn wir reinkommen dann kriegen wir gleich die Plätze. Es steht jeder auf oder holt uns was zu trinken oder gibt uns seine Kippen.",
      "EN": "And when we drink a beer we just understand each other and everyone knows that they shouldn't bother us. That they can fuck off. Everybody's afraid of us anyway. If we enter we'll get our seats. Everybody gets up or gets us something to drink or gives us his cigaretts.",
      "phase": 2
    },
    {
      "file_name": "P03_R_NF_02_1.mp4",
      "display_name": "Log_27_02",
      "tags": "Family Sasha Fear Group Familie Sascha Angst Gruppe",
      "DE": "Das ist meien Familie und wir würden füreinander sterben. Das ist eine Sicherheit. Du kannst dich auf jeden verlassen egal was ist. Die Anderen helfen dir und vor Sascha hat eh jeder Schiss. Wenn der irgendwo reinkommt dann traut sich keiner mehr was.",
      "EN": "This is my family and we would die for each other. That's a security. You can count on anyone no matter what. The others will help you and everyone is scared of Sasha anyway. If he comes in anywhere nobody dares anything anymore.",
      "phase": 2
    },
    {
      "file_name": "P03_R_NF_04_1.mp4",
      "display_name": "Log_27_04",
      "tags": "Police District Pay Fun Security Group Stealing Steal Polizei Revier Bezahlen Zahlen Spaß Sicherheit Gruppe Klauen",
      "DE": "Unser Viertel ist eh Bullenbefreite-Zone. Wenn die kommen dann fahren die einfach nur durch. Wenn die uns sehen dann wissen die schon: Keine Chance. Und lassen uns einfach in Ruhe ist auch besser so. ",
      "EN": "Our neighborhood is a cop-free zone anyway. If they come they just go right through. If they see us they'll know they won't have a chance. And just leave us alone is better that way. ",
      "phase": 2
    },
    {
      "file_name": "P03_O_GG_01_1.mp4",
      "display_name": "Log_29_01",
      "tags": "District Family Marked Territory Foreigners Sign Wolv Viertel Familie Markiert Zeichen Revier Fremde Wolf",
      "DE": "Wir haben unser Viertel markiert wir haben das gekennzeichnet. Damit jeder ganz genau weiß wer hier wohnt und wer hier einfach nichts verloren hat. Wir müssen das Viertel säubern. Da kommt kein Kanake mehr rein. Das ist unser Viertel und wer das nicht checked der hats nicht anders verdient als das er eins auf die Fresse kriegt.",
      "EN": "We marked our neighborhood we marked it. So that everyone knows exactly who lives here and who simply has no business here. We have to clean up the neighborhood. No more dagos in there. This is our neighborhood and if you don't check it you deserve to get your ass kicked.",
      "phase": 2
    },
    {
      "file_name": "P03_O_GG_03_1.mp4",
      "display_name": "Log_29_03",
      "tags": "Interview Good people Job cleansing beginning burn Gutmensch Beruf Arbeit Anfang Brennen Fahrrad",
      "DE": "Ey und dann braucht sich dieser Gutmensch gar nicht zu wundern ja das wir dann warten auf ihn weil wir genau wissen wann er nach Hause kommt mit seinem scheiß Ökofahrrad. Dann sind wir schon vor ihm da. Wir wissen wo er wohnt wir wissen wo er sein scheiß Büro hat und dann warten wir da ja und wir sind zu zehnt. Er ist ganz alleine und dann möchte ich mal sehen wie er seine Fresse noch aufkriegt. Und wie er Schiss hat. Wie er uns anfleht \"bitte bitte bitte macht nix. Ich mach doch nur meinen Job\". Ja aber ich mache auch nur meinen Job und mein Job ist es dieses Viertel zu säubern und dann gibt es einfach mal ein paar auf die Fresse. Bis er endlich mal checked was Sache ist bis er aufwacht aus seinem schönen Gutmenschen Traum. Da hab ich keinen Bock drauf dieser Denkzettel war erst der Anfang. Irgendwann wird alles brennen nicht nur dein scheiß Büro.",
      "EN": "Hey and then this do-gooder doesn't need to wonder yes we are waiting for him because we know exactly when he comes home with his fucking eco bike. Then we'll be there before him. We know where he lives we know where he has his fucking office and then we wait there yes and we are ten. He's all alone and then I want to see how he gets his mouth open. And he's scared. As he begs us \"please please please don't do it. I'm just doing my job.\" Yeah but I'm just doing my job as well and my job is to clean up this neighborhood and sometimes you  just have to get a proper beating. Until he finally checks what's going on until he wakes up from his good man's dream. I'm not up for it this reminder was just the beginning. Someday everything will burn not just your fucking office.",
      "phase": 2
    },
    {
      "file_name": "P03_O_GG_05_1.mp4",
      "display_name": "Log_29_05",
      "tags": "burning pig flame mark sign branding Wolv Brennen Schwein Markiert Zeichen Brandzeichen Wolf",
      "DE": "Wir haben ihn erstmal umgehauen dann lag er da am Boden. Diese fette Sau. Konnte sich nicht mehr rühren. Zwei haben ihn festgehalten Sascha hat ihm nochmal richting eins reingetreten und dann hab ich ihm das Hemd runtergerissen. Dann lag er da mit seinem fettem Schwabbelbauch und wir haben richtig schön das Ding heiß gemacht ja richtig schön über der Flamme. Und er hat ganz genau gesehen was gleich passiert. Diese Panik war einfach unbezahlbar. Ich wollte das machen ich hab zu den Anderen gesagt \"Haltet ihn fest haltet das Schwein gut fest\" und dann hab ich dieses Eisen genommen und hab ihm unser Zeichen auf seine fette Brust gedrückt. Das hat richtig gebrannt. Es hat gestunknen und es war einfach nur geil. Ja jetzt ist er einer von uns ob er will oder nicht. Uns wird er nicht mehr vergessen.",
      "EN": "We knocked him down then he was lying there on the floor. That fat pig. Couldn't move a muscle. Two held him Sascha kicked him hard again and then I tore off his shirt. Then he lay there with his fat belly and we made the thing really nice hot yes really nice over the flame. And he saw exactly what was about to happen. This panic was simply priceless. I wanted to do it I said to the others \"Hold him hold the pig well\" and then I took this iron and pressed our sign on his fat chest. That really burned. It was stinking and it was just awesome. Yeah now he's one of us like it or not. He won't forget us.",
      "phase": 2
    },
    {
      "file_name": "P03_O_Pr_01_1.mp4",
      "display_name": "Log_30_01",
      "tags": "Train Prepare Hunt Mission Hunter Trainieren Vorbereiten Jagd Jagen Jäger ",
      "DE": "Saufen gut und schön ja aber wir müssen auch drauf achten das wir fit bleiben. Damit kenn ich mich aus wir müssen uns stählen ja und ich weiß ganz genau was wir machen müssen damit wir fit sind. Damit wir das sind damit wir reagieren können. Damit uns keiner mehr was kann. Wir müssen laufen wir brauchen Kondition. Wir brauchen Ausdauer. Wir sind die Jäger und die Jäger müssen stark sein wir müssen trainieren und wir brauchen ein bisschen Disziplin ja. Sonst erreichen wir gar nichts.",
      "EN": "Booze well and good yes but we also have to make sure that we stay fit. I know about that we have to steel ourselves yes and I know exactly what we have to do to be fit. So that we are present so that we can react. So nobody can do anything to us anymore. We have to run we need stamina. We need perseverance. We are the hunters and the hunters have to be strong we have to train and we need a little discipline yes. Otherwise we won't get anywhere.",
      "phase": 2
    },
    {
      "file_name": "P03_O_Pr_02_1.mp4",
      "display_name": "Log_30_02",
      "tags": "train prepare discipline unit focus run hunt hunter strong Sports Trainieren Vorbereiten Disziplin Einheit Fokusieren Laufen Sport Jagen Jagd Jäger Stark",
      "DE": "Wir müssen uns jetzt fokusieren wir müssen trainieren wir müssen fit sein. Wir müssen uns stählen... damit uns sowas wie bei der Demo nicht mehr passieren kann. Damit wir zurückschlagen und der Tag gekommen ist ja dann habt ihr keine Chance mehr. ",
      "EN": "We need to focus now we need to train we need to be fit. We have to steel ourselves... so something like the demo can't happen to us anymore. So we can fight back and when the day comes yes then you won't have a chance. ",
      "phase": 2
    },
    {
      "file_name": "P04_R_De_01_1.mp4",
      "display_name": "Log_31_01",
      "tags": "Demo Sasha Train Concert Beer Demonstration Sascha Zug Konzert Bier",
      "DE": "Ja es war Saschas Idee nach einem Konzert. So eine Nacht und Nebelaktion. Meinte wir fahren jetzt einfach los. Wenn wir jetzt nachts losfahren dann sind wir rechtzeitig da am nächsten Tag. Joa und dann sind wir zum Bahnhof gefahren haben uns Tickets gekauft Bierchen mitgenommen und sind mit dem Zug losgefahren damit wir zu der Demo kommen.",
      "EN": "Yes it was Sascha's idea after a concert. A night and fog operation. Said we'd just go. If we leave now at night we'll be there in time for the next day. Yeah and then we went to the station bought tickets took some beers and the train to get to the demo.",
      "phase": 3
    },
    {
      "file_name": "P04_R_De_02_1.mp4",
      "display_name": "Log_31_02",
      "tags": "Train Demo Demonstration Beer Sing Singing Zug Bier Singen Song Lied",
      "DE": "Ja und Samstag war dann die Demo es war echt gut das wir da waren war echt wichtig und wir sind dann total aufgekratzt zurück in den Zug. Wir sind da eingestiegen und wollten nach Hause fahren. Ja schön am trinken am gröhlen Lieder gesungen. Also wir waren richtig in der Stimmung waren noch richtig high .",
      "EN": "Yes and Saturday was the demo it was really good that we were there was really important and after that we got totally excited back on the train. We got in and wanted to go home. Yeah nice drinking howling singing songs. So we were really in the mood were still really high.",
      "phase": 3
    },
    {
      "file_name": "P04_R_De_03_1.mp4",
      "display_name": "Log_31_03",
      "tags": "Train Demo Demonstration Beer Sing Singing Zug Bier Singen Song Lied",
      "DE": "Ja und irgendwann sind dann Bullen eingestiegen ziemlich viele Bullen. Irgendwann waren auch nur noch wir in dem Abteil und die Bullen. Ja und dann meinten die \"an der nächsten Station da müsst ihr raus\".",
      "EN": "Yeah and at some point the cops got in a lot of cops. Eventually it was just us in the compartment and the cops. Yes and then they said \"at the next station you have to get out of here\".",
      "phase": 3
    },
    {
      "file_name": "P04_R_De_04_1.mp4",
      "display_name": "Log_31_04",
      "tags": "Police kicked out Get off Train Polizei Ticket Raus Aussteigen Zug",
      "DE": "Erstmal diskutiert \"Wie raus? Das ist nicht unsere Station. Wir kennen uns hier vielleicht nicht aus. Wir haben das Ticket auch gekauft.\". Aber die meinten \"Ne ihr müsst jetzt hier raus.\". Gut nur gedacht \"Fuck off\" nehmen wir halt den nächsten Zug verlegen wir unsere Party halt dann da hin.",
      "EN": "First we discussed \"What out? This is not our station. We may not know our way around here. We bought the tickets.\" But they said \"No you have to get out of here now.\" Well just thought \"Fuck off\" we take the next train let's move our party there.",
      "phase": 3
    },
    {
      "file_name": "P04_R_De_05_1.mp4",
      "display_name": "Log_31_05",
      "tags": "Police kicked out Get off Train Station Polizei Ticket Raus Aussteigen Zug Bahnhof",
      "DE": "Und wir steigen aus Bullen schauen uns nach ja und dann stand da halt so ein Mob. Voller scheiß Zecken. Das ganze Gleis war voll komplett.",
      "EN": "And we get out the cops look at us yeah and then there was this mob. Full of fucking punks. The whole track was completely full.",
      "phase": 3
    },
    {
      "file_name": "P04_R_De_06_1.mp4",
      "display_name": "Log_31_06",
      "tags": "mob leftist zecken train station Track Linke Punks Bahnhof Gleis Gruppe",
      "DE": "Und dann halt wir. Zehn Mann oder was wir waren. Okay ja Scheiße. Ich mein was kannst du in so einer Situation anders machen? Sind wir gerannt. Meine Tasche verloren einfach alles hingeschmissen. Ich mein ich wollte einfach weg und die uns hinterher. Komplett. Alle Mann.",
      "EN": "And then us. Ten men or what we were. Okay yeah shit. I mean what can you do in a situation like this? Then we ran. Lost my bag just threw everything away. I mean I just wanted to leave and they came after us. All of them. Everybody.",
      "phase": 3
    },
    {
      "file_name": "P04_R_De_07_1.mp4",
      "display_name": "Log_31_07",
      "tags": "mob leftist zecken train station Track hunted chase hunt Run Linke Punks Bahnhof Gleis Gruppe Verfolgt Gejagt Wegrennen",
      "DE": "Wir sind da rausgestolpert aus der Station hingefallen. Sascha hat mich noch wieder hochgezogen und einfach nur gerannt. Richtig Panik diese ganzen Zecken hinterher. Flaschen geworfen rumgebrüllt. Ja und dann stehst du da und kennst dich nicht aus.",
      "EN": "We tripped out of the station fell down. Sasha pulled me up again and just ran. Panic all those punks. They threw bottles at us yelled at us. Yeah and then you stood there and you don't know your where to go.",
      "phase": 3
    },
    {
      "file_name": "P04_R_De_08_1.mp4",
      "display_name": "Log_31_08",
      "tags": "Lost Mob Hunted Leftist Punks Running Verlaufen Gejagdt Zecken Rennen Laufen",
      "DE": "Ich hab gedacht \"Einfach nur verstecken wir müssen hier weg\". Die killen uns wenn die uns kriegen. Die schlagen uns zusammen. Die töten uns. Okay dann über die Gärten über die Zäune.",
      "EN": "I was thinking \"Just hide we have to get out of here\". They'll kill us if they catch us. They'll beat us up. They'll kill us. Okay over the gardens over the fences.",
      "phase": 3
    },
    {
      "file_name": "P04_R_De_09_1.mp4",
      "display_name": "Log_31_09",
      "tags": "Garden Fences Hide Kill Die Garten Zaun Verstecken Sterben Töten",
      "DE": "So eine Wohnsiedlung Reihenhäuschen an Reihenhäuschen und weit und breit sonst kein Schwein. Springen wir da in die Gärten und die waren alle am grillen oder Fußball gucken. Gucken uns an wie blöd was machen die hier und dann sehen die aber den schreienden Mob von da hinten die echt alles niederwalzen.",
      "EN": "It was a housing estate row houses on row houses and far and wide no one else on the streets. We jumped into the gardens and they were all barbecuing or watching football. Frowned at us what are they doing here and then they saw the screaming mob from back there who was rolling over everything.",
      "phase": 3
    },
    {
      "file_name": "P04_R_De_10_1.mp4",
      "display_name": "Log_31_10",
      "tags": "Hide House Panic Sasha Garden Verstecken Haus Panik Sascha Garten",
      "DE": "Tja aber wir waren auch gar nicht mehr wir alle paar haben die erwischt direkt. Ja und wir sind in so ein Haus rein wir sind einfach rein. Wollten uns verstecken. Ich mein die Typen aus dem Haus auch erstmal nicht sonderlich begeistert. Hatten auch vor uns erstmal Schiss aber wir hatten einfach Panik. Selbst Sascha. Ey so hab ich den noch nie gesehen. Ich mein das ist Todesangst du weißt die wollen dich kaputt machen. Die wollen dich richtig ficken.",
      "EN": "Well we weren't all of us anymore some of us they got right away. Yeah and we got into one of those houses. We just got in. Tried to hide us. I mean the guys in the house weren't too enthusiastic at first. They were scared of us for a while but we just panicked. Even Sasha. Hey I never saw him like that before. I mean that's fear of death you know they want to fuck you up. They really want to fuck you up.",
      "phase": 3
    },
    {
      "file_name": "P04_R_De_11_1.mp4",
      "display_name": "Log_31_11",
      "tags": "Caught Friend Garden Death House Gefangen Erwischt Freund Garten Haus Tod",
      "DE": "Schauen wir raus aus dem Fenster ja und dann waren die da und hatten einen von uns. Richtig zu Boden gedrückt mit dem Fuß auf der Kehle gestanden. Und dann holen die da so ein Tränengas raus und halten drauf halten einfach drauf. Sprühen dem da die ganze scheiß Flasche in die Fresse.",
      "EN": "Looked out the window yeah and then they were there and they had one of us. Properly pressed to the ground with a foot on his throat. And then they pull out some tear gas and sprayed it on him just keep it on. Sprayed the whole fucking bottle in his face.",
      "phase": 3
    },
    {
      "file_name": "P04_R_De_12_1.mp4",
      "display_name": "Log_31_12",
      "tags": "Police Tear Gas Maze Friend Help Tränengas Pfefferspray Freund Hilfe",
      "DE": "Dann haben die endlich die Bullen gerufen ich mein irgendjemand musste uns helfen. Dann kommen die Bullen gehen sofort dazwischen Platzverweise ziehen die weg von unserem Freund und schaffen uns in irgendeinen Bus und einfach raus. Setzen uns irgendwo aus am Arsch der Welt. So von wegen \"Ey kommt mal klar. Viel Spaß noch\"",
      "EN": "Then they finally called the cops I mean somebody had to help us. Then the cops came intervenee immediately expulsions they pulled them away from our friend and got us on some bus and just out. Left us out somewhere in the middle of the road. Just said \"Hey calm down. Have a good time\"",
      "phase": 3
    },
    {
      "file_name": "P04_R_De_13_1.mp4",
      "display_name": "Log_31_13",
      "tags": "Friend Tear Gas Maze Police Freund Tränengas Pfefferspray Polizei",
      "DE": "Ja und wir haben da ganz schön Federn gelassen. Ja der Klaus der ist sehbehindert seitdem. Will auch nichts mehr zu tun haben mit allem. Der kann nicht mehr das war dem zu viel. Ey die haben den richtig kaputt gekriegt die haben den zerstört. Das haben sie bei uns garantiert nicht geschafft ich lass mir nichts mehr gefallen.",
      "EN": "Yeah we left some feathers there. Yes Klaus has been visually impaired since then. Doesn't want anything to do with anything anymore. He can't take it anymore that was too much. Hey they really broke him they destroyed him. But they sure as hell didn't break us. I'm not taking it anymore.",
      "phase": 3
    },
    {
      "file_name": "P04_R_De_14_1.mp4",
      "display_name": "Log_31_14",
      "tags": "Klaus Kill Hunter Revenge Destroyed Töten Jäger Rache Zerstört",
      "DE": "Danke. Das ist euer Verdienst und jetzt wird der Tag kommen da kriegen die in die Fresse und so das sie es nie vergessen. Wir lassen uns das nicht gefallen sowas macht keiner mehr mit uns. Denn jetzt geben wir bestimmt nicht mehr auf. Ab jetzt sind wir die Jäger und ihr seit die Gejagten aber euch wird keiner helfen. Ihr werdet alle verrecken.",
      "EN": "Thank you. It's your merit and now the day will come when they'll get one on their kisser and they'll never forget it. We're not taking it. Nobody does that to us anymore. Because we're certainly not giving up now. From now on we are the hunters and you are the hunted but no one will help you. You're all going to die.",
      "phase": 3
    },
    {
      "file_name": "P04_R_Threat_01_1.mp4",
      "display_name": "Log_32_01",
      "tags": "revenge hunter payback hunted job money Rache Jäger Jagd Job Arbeit Geld",
      "DE": "Tja wir leben einfach ganz normal unter euch. Machen ganz normale Jobs. Verdienen Geld wie jeder andere auch. Ganz geregelt so ein Alltag. Ja wir spielen das Spielchen mit machen was für den Staat. Zahlen auch ganz brav die Steuern. Aber wir werden euch fertig machen ihr wisst nicht aus welcher Ecke es kommt.",
      "EN": "Well we just live normally among you. Doing regular jobs. Earn money like everybody else. Completely regulated such an everyday life. Yeah we'll play the game do something for the state. Pay the taxes too. But we're gonna kick your ass you don't know what corner it's coming from.",
      "phase": 3
    },
    {
      "file_name": "P04_R_Threat_02_1.mp4",
      "display_name": "Log_32_02",
      "tags": "payback revenge job Money System Abrechnung Rache Arbeit Geld",
      "DE": "Also fühlt euch nicht zu sicher der Tag der Abrrechnung der kommt. Der kommt ganz sicher. Wie euer schönes Amen in der Kirche wie man so schön sagt.",
      "EN": "So don't feel too safe the day of reckoning will come. I'm sure he will. Like your amen in the church as they say.",
      "phase": 3
    },
    {
      "file_name": "P04_R_F_01_1.mp4",
      "display_name": "Log_33_01",
      "tags": "Father dead family Turkish Vater Tod Familie Türken Türkisch",
      "DE": "Ist mir scheiß egal was mit dem ist. Der lebt da irgendwo mit seiner scheiß Kanaken Frau. Der ist für mich gestorben.",
      "EN": "I don't give a shit what happened to him. He lives there somewhere with his fucking dago wife. He is dead to me.",
      "phase": 3
    },
    {
      "file_name": "P04_R_F_02_1.mp4",
      "display_name": "Log_33_02",
      "tags": "Family father letter email Wife Stepmother reliable Friends Familie Vater Brief Frau Stiefmutter Verlässlich Freunde",
      "DE": "Alles was kam ist eine scheiß Email. Eine scheiß unpersönliche verfickte Email. \"Hey vielleicht können wir uns mal wieder treffen. Vielleicht wieder den Kontakt ein bisschen aufbauen\". Ich brauch das nicht. Ich hab eine neue Familie und auf die kann ich mich wenigstens verlassen.",
      "EN": "All that came was a fucking email. A fucking impersonal fucking email. \"Hey maybe we can meet again sometime. Maybe get back in touch a little bit\". I don't need this. I have a new family and at least I can count on them.",
      "phase": 3
    },
    {
      "file_name": "P04_R_TH_02_1.mp4",
      "display_name": "Log_34_02",
      "tags": "Destiny Born Country Choice Germany race culture Schicksal Geboren Land Wahl Deutschland Rasse Kultur Nazi",
      "DE": "Und jedes Land hat auch seine Vergangenheit und die gehört auch zu dem Land. Und die macht doch dieses Land auch besonders und groß.",
      "EN": "And every country has its past and that belongs to the country. And that's what makes this country special and great.",
      "phase": 3
    },
    {
      "file_name": "P04_R_TH_03_1.mp4",
      "display_name": "Log_34_03",
      "tags": "Country past history born race culture Land Vergangenheit Geschichte Geboren Rasse Kultur Nazi",
      "DE": "Ich war damals nicht dabei aber es ist richtig so. Es war alles richtig so und so muss es weiter gehen. Wir müssen stolz drauf sein wir dürfen uns nicht dafür schämen. Ich schäme mich nicht dafür.",
      "EN": "I wasn't there back then but it's the right thing to do. It was all right and it must go on like this. We must be proud of it we must not be ashamed of it. I'm not ashamed of it.",
      "phase": 3
    },
    {
      "file_name": "P04_R_To_01_1.mp4",
      "display_name": "Log_35_01",
      "tags": "Club Toilet Party Family Beer Drunk Friends Toilette Familie Besoffen Bier Freunde",
      "DE": "Ja was denn hey? Ja was ist denn? Boa gehen die mir auf den Sack ey diese besoffenen Assis. Ey wir müssen uns konzentrieren. Nicht den ganzen Tag nur saufen wir müssen uns jetzt entscheiden. Wir sind die Familie und ich hab keinen Bock jeden in meiner Familie aufzunehmen.",
      "EN": "Yeah what's up hey? Well what is it? Boa they piss me off those drunk fuckers. Hey we need to focus. We can't drink all day long we have to decide now. We're the family and I can't take everyone into my family.",
      "phase": 3
    },
    {
      "file_name": "P04_R_To_02_1.mp4",
      "display_name": "Log_35_02",
      "tags": "Family Drinking Drunks Cleans Focus Familie Betrunken Besoffen Sauber Fokus",
      "DE": "Die sind nicht besser als dieses Dreckspack. Die saufen nur und nichts dahinter. Da trennt sich die Spreu vom Weizen und wenn die sich nicht verpissen dann tanzen wir einfach auf ihren Gräbern. Die müssen weg damit will ich nichts zu tun haben.",
      "EN": "They're no better than those scumbags. They just drink and do nothing. The wheat needs to be separated from the chaff and if they don't piss off then we simply dance on their graves. They have to go I don't want anything to do with them.",
      "phase": 3
    },
    {
      "file_name": "P04_R_To_03_1.mp4",
      "display_name": "Log_35_03",
      "tags": "drunks cleanse weed out death Graves Dance Betrunken Säubern Trennen Tod Gräbern Tanzen",
      "DE": "Ey das ist eine ganze andere Liga ja? Die können nicht bei uns mitspielen. Sollen sie sich doch tot saufen. Schade wäre es nicht drum dann sind sie weg und wir können weiter machen mit unserer Mission.",
      "EN": "This is a whole other league huh? They can't play with us. Let them drink themselves to death. It wouldn't be a pity then they are gone and we can continue with our mission.",
      "phase": 3
    },
    {
      "file_name": "P04_R_To_04_1.mp4",
      "display_name": "Log_35_04",
      "tags": "traitors death mission Die Verräter Sterben Tod Mission",
      "DE": "Verräter müssen sterben jaja. ",
      "EN": "Traitors must die yes. ",
      "phase": 3
    },
    {
      "file_name": "P04_R_To_05_1.mp4",
      "display_name": "Log_35_05",
      "tags": "traitors race kill Verräter Rasse Töten Mission Nazi",
      "DE": "Feiger Brudermord das ist es was die machen. Verrat an ihrer eigenen Rasse anstatt die Rasse zu schützen. Unsere Rasse ist das kostbarste was es gibt. Ist eine Vormachtsstellung ja die kannst du nicht mit Füßen treten. Und jeder der das macht der gehört exekutiert aufgeschlitzt aufgehängt vergast.",
      "EN": "Coward fratricide that's what they do. Betrayal of their own race instead of protecting it. Our race is the most precious thing there is. It's a supremacy yes you can't trample on it. And anyone who does should be executed slit open hanged gassed.",
      "phase": 3
    },
    {
      "file_name": "P04_R_Sm_01_1.mp4",
      "display_name": "Log_36_01",
      "tags": "Supermarket radical violence Jessika mission Hate Foreigners Supermarkt Radikal Gewalt Hass Ausländer",
      "DE": "Der hat sich viel zu sicher gefühlt da in seinem Laden. Es war mal Zeit ein Zeichen zu setzen. Dem halt zeigen wo er eigentlich hin soll wo er eigentlich her kommt und das er hier überhaupt nichts verloren hat. Das er allen ernstes unser Geld einsteckt von uns Deutschen mit seiner scheiß Paki Ware da.",
      "EN": "He felt way too safe in his shop. It was time to make a statement. To show him where he should go where he actually comes from and that he has no business here. He's seriously charging money from us Germans for his fucking Paki Ware.",
      "phase": 3
    },
    {
      "file_name": "P04_R_Sm_02_1.mp4",
      "display_name": "Log_36_02",
      "tags": "Supermarket radical violence Jessika Cleanse Supermarkt Radikal Gewalt Säubern",
      "DE": "Ja und dann sind wir da rein hat natürlich groß Schiss gehabt. Hat schon gesehen was da für eine Gruppe reinkommt. Ich mein ist ja auch nicht das erste Mal das wir irgendwas da gemacht haben. Wir haben uns eh immer alles genommen was wir wollten. Hier mal Kippen da mal Bier hier mal ein paar Chips. Was wir halt gebraucht haben. So ein bisschen wie ein Selbstbedienungsladen. Ja und da dachte er wohl es wieder die gleiche Nummer wie nehmen uns einfach nur worauf wir Bock haben. Er hält einfach lieber die Fresse weil das eine bessere Idee ist für ihn. Ne aber diesmal war uns nach was Anderem. Diesmal wollten wir alles zerstören ihm alles kaputt hauen seine ganze Existenz. Alles niedermachen.",
      "EN": "Yes and then we went in there of course he was very scared. Saw the group coming in. I mean it's not the first time we've done this. We always took everything we wanted anyway. Here some smokes there some beer here some chips. Whatever we needed. It's a bit like a self-service store. Yeah and I guess he thought it was the same number again so we just take what we're up to. He'd rather shut the fuck up because that's a better idea for him. No but this time we were after something else. This time we wanted to destroy everything wreck everything his whole existence. Burn it all down.",
      "phase": 3
    },
    {
      "file_name": "P04_R_Sm_03_1.mp4",
      "display_name": "Log_36_03",
      "tags": "Halal supermarket pig german violence crime Supermarkt Schwein Deutsch Gewalt Verbrechen",
      "DE": "Ja und dann haben wir bei den Regalen angefangen alles rausgezogen alles kaputt geschlage runtergezerrt aufgemacht alles aufgerissen alles voller Pampe aus Milch Cornflakes Bier Chips. Drin rumgesprungen alles zertreten. Ey es war ein einziger Brei. Wenn du gegangen bist hat es geknirscht und der Typ war wie versteinert. Woah hatte der Schiss hat gedacht \"Was die jetzt mit meinen Sachen da machen das machen die gleich mit mir\". Dann haben wir ihn gepackt haben ihn mit seiner Fresse runtergrückt und haben ihn das fressen lassen vom Boden. Die ganzen Chips die ganze Matsche den ganzen Brei und schön über die Scherben gezogen. Haben nix heil gelassen. Paar Sachen konnten wir noch brauchen die haben wir eingesteckt und ansonsten haben wir den Laden einfach kaputt gemacht. Joa seitdem steht das Teil leer. Wird mal wieder Zeit für ein gutes deutsches Geschäft. Metzger oder sowas. Nix hier Halal sondern richtig geiles Schwein.",
      "EN": "Yes and then we started with the shelves pulled everything out wrecked everything pulled it down opened it all up everything full of milk cornflakes beer chips. Jumping around in it crushing everything. Hey it was one big mess. When you walked it gnashed and the guy was petrified. Woah he was scared probablly thought \"What they're doing with my stuff now they're doing with me next.\" Then we grabbed him pulled him down with his face and made him eat it off the floor. All the chips all the mud all the mess and nicely tragged him through the shards. Didn't leave anything intact. We still needed a few things we took them and otherwise we just broke the shop. Yeah this thing's been empty ever since. It's time for another good German business. Butcher or something. No halal here only really nice pig meat.",
      "phase": 3
    },
    {
      "file_name": "K03_M_1.mp4",
      "display_name": "Log_37",
      "tags": "",
      "DE": "Das ist jetzt der Moment wo ich sagen soll was ich gelernt habe oder? Meine Schlussfolgerung. Okay. Das Leben ist viel zu kurz um die ganze Zeit wütend zu sein. Das bringt nichts man muss was machen und vorallem müssen wir aufhören uns zu bekriegen wir müssen zusammenhalten. Ey ich bin nicht dein Feind. Ich bin dein Freund ja. Aber wenn du wirklich verlangst das ich einfach nur da sitze und nichts mache. Einfach nur dabei zuschaue wie irgend so ein verdammter Mula versucht meine Mutter zu ficken dann kannst du das vergessen. Das läuft bei mir nicht. Es ist Schluss. Geh doch mal raus geht doch alle mal raus. Macht die Augen auf. Schaut euch doch mal um schaut euch doch mal in eurem tollen Viertel um. Willst du so leben? Willst du so weiter machen ja? Mit diesem ganzen Dreckspack? Die nehmen uns alles weg. Alles. Merkst du das nicht? Und dieser scheiß Staat deckt alles alles decken die. Die sind unser Feind. Gegen die müssen wir kämpfen und zwar jetzt. Es ist jetzt an der Zeit das wir uns wehren. Jetzt bevor es zu spät ist. Ja jetzt kannst du dich entscheiden. Schaust du einfach dabei zu lässt du dir alles wegnehmen? Deine Frau deinen Job. Ey was wollen die hier denn. Sollen die doch in die Wüste zurück gehen wo die her kommen. Da ist doch genug Platz. Es gibt eh viel zu viele Menschen auf der Welt. Weißt du einfach weg mit dem ganzen Dreckspack. Es reicht das wir da sind. Ja das ist mein Erbe an euch. Ich brauche keine Millionen um die Welt zu verändern. Gib mir eine Pistole und eine Kugel und ich werde ein Chaos stiften das ihr euch nicht vorstellen könnt. Und es wird eine Zeit kommen ihr Lügner Heuchler Schmarotzer ihr Dreckspack. Da wird all unser Wohlstand verflossen all unsere Ideale verwaschen und unser heiliger Mutterboden vergiftet sein. Ja und dann bleibt nur noch eins übrig. Das ist die Liebe der Patrioten zu ihrem Vaterland wie die Liebe einer Mutter zu ihrem Kind. Die kennt auch keine Gesetze und keine Regeln. Ich werde überall sein da hast du keine Chance und wenn ich nicht mehr da bin dann wird einfach jemand anders meinen Platz einnehmen. Und du wirst dich jeden Tag umschauen ob deine geliebte Schwester wieder morden wird.",
      "EN": "This is the moment when I should say what I've learned right? My conclusion. Okay. Life is way too short to be angry all the time. This is useless we have to do something and above all we have to stop fighting each other we have to stick together. Hey I'm not your enemy. I am your friend yes. But if you really want me to just sit there and do nothing. Just watch some fucking mula trying to fuck my mother then you can forget it. I don't do that. It's over. Why don't you go outside? Why don't you all go outside? Open your eyes. Take a look around take a look around your great neighborhood. Is that how you want to live? You wanna keep this up huh? With all this filth? They're taking everything. Everything. Can't you see that? And this fucking state covers everything they cover everything. They're our enemy. We have to fight them and we have to fight them now. Now is the time to fight back. Now before it's too late. Yes now you can decide. Do you just stand by and let them take everything away? Your wife your job. Hey what do they want here? Let them go back to the desert where they came from. There's plenty of room. There are way too many people in the world anyway. You know just get rid of all the filth. It's enough that we're here.  Yeah that's my inheritance to you all. I don't need millions to change the world.Give me a gun and a bullet and I'll make a mess you can't imagine. There will come a time you liars hypocrites scroungers you filthy bastards when all our wealth will evaporateall our ideals will be washed out and our sacred mother earth poisoned. Yes and then there's only one thing left that's the patriots' love for their country. Like a mother's love for her child she knows no laws or rules. I'll be everywhere you don't stand a chance and when I'm gone someone else will just take my place. You will look around every day to see if your beloved sister will kill again.",
      "phase": 3
    },
    {
      "file_name": "K04_Ls_1.mp4",
      "display_name": "Root.Jessika.Webcam",
      "tags": "",
      "DE": "",
      "EN": "",
      "phase": 4
    }
  ]
}