%YAML 1.1
%TAG !u! tag:unity3d.com,2011:
--- !u!21 &2100000
Material:
  serializedVersion: 6
  m_ObjectHideFlags: 0
  m_CorrespondingSourceObject: {fileID: 0}
  m_PrefabInstance: {fileID: 0}
  m_PrefabAsset: {fileID: 0}
  m_Name: HueSaturationBrightness_LinearDodge
  m_Shader: {fileID: 4800000, guid: 00a62e2766d9270469f98729b9169a2c, type: 3}
  m_ShaderKeywords: COMBINE_ALPHA FORCE_CLIP
  m_LightmapFlags: 5
  m_EnableInstancingVariants: 0
  m_DoubleSidedGI: 0
  m_CustomRenderQueue: -1
  stringTagMap: {}
  disabledShaderPasses: []
  m_SavedProperties:
    serializedVersion: 3
    m_TexEnvs:
    - _MainTex:
        m_Texture: {fileID: 0}
        m_Scale: {x: 1, y: 1}
        m_Offset: {x: 0, y: 0}
    m_Floats:
    - ClipThreshold: 0.001
    - CombineAlpha: 1
    - DstBlendMode: 1
    - ForceClip: 1
    - SrcBlendMode: 5
    - _ColorMask: 15
    - _Stencil: 0
    - _StencilComp: 8
    - _StencilOp: 0
    - _StencilReadMask: 255
    - _StencilWriteMask: 255
    - _UseUIAlphaClip: 0
    m_Colors:
    - _Color: {r: 1, g: 1, b: 1, a: 1}
