%YAML 1.1
%TAG !u! tag:unity3d.com,2011:
--- !u!21 &2100000
Material:
  serializedVersion: 6
  m_ObjectHideFlags: 0
  m_CorrespondingSourceObject: {fileID: 0}
  m_PrefabInstance: {fileID: 0}
  m_PrefabAsset: {fileID: 0}
  m_Name: Standard_LinearDodge
  m_Shader: {fileID: 4800000, guid: c4b4f52ca7499d7458e0eb3577108f71, type: 3}
  m_ShaderKeywords: COMBINE_ALPHA FORCE_CLIP
  m_LightmapFlags: 5
  m_EnableInstancingVariants: 0
  m_DoubleSidedGI: 0
  m_CustomRenderQueue: -1
  stringTagMap: {}
  disabledShaderPasses: []
  m_SavedProperties:
    serializedVersion: 3
    m_TexEnvs:
    - _MainTex:
        m_Texture: {fileID: 0}
        m_Scale: {x: 1, y: 1}
        m_Offset: {x: 0, y: 0}
    - _SoftMask:
        m_Texture: {fileID: 0}
        m_Scale: {x: 1, y: 1}
        m_Offset: {x: 0, y: 0}
    m_Floats:
    - ClipThreshold: 0.001
    - CombineAlpha: 1
    - DstBlendMode: 1
    - ForceClip: 1
    - MyDstMode: 2
    - MySrcMode: 21
    - SrcBlendMode: 5
    - _ColorMask: 30
    - _Stencil: 10.1
    - _StencilComp: 5.24
    - _StencilOp: 42.85
    - _StencilReadMask: 379.6
    - _StencilWriteMask: 243
    - _UseUIAlphaClip: 0
    m_Colors: []
